== {{int:filedesc}} ==
{{Information
|Description={{en|1996 Honda Dio 50cc scooter<br/>
;Other information:
It's just a simple photo of my scooter}}
|Source=I mtook the photo with my HTC Desire cell phone in 2012
|Date=2012-05
|Author=[[:en:User:Santamoly|Santamoly]]
|Permission=
|other_versions=
}}

== {{int:license-header}} ==
{{self|author={{user at project|Santamoly|wikipedia|en}}|Cc-zero}}

== {{Original upload log}} ==
{{original description|en.wikipedia|1996+Honda+Dio+50cc+scooter.jpg}}
{| class="wikitable"
! {{int:filehist-datetime}} !! {{int:filehist-dimensions}} !! {{int:filehist-user}} !! {{int:filehist-comment}}
|-
| 2012-10-08 07:42 || 384×388× (99410 bytes) || [[:en:User:Santamoly|Santamoly]] || ''<nowiki>Uploading a self-made file using [[Wikipedia:File_Upload_Wizard|File Upload Wizard]]</nowiki>''
|}	Mark

{{subst:unc}}
