== {{int:filedesc}} ==
{{Information
|Description={{en|1=Għajn Tuffieħa Tower http://www.bigequals.com/?f=3 }}
|Source={{Own}}
|Date=2016-04-25
|Author=[[:en:User:Continentaleurope|Continentaleurope]]
|Permission=
|other_versions=
}}
{{Location|35|56|2.61|N|14|20|40.41|E|alt:28_source:exif_heading:335.458763}}

== {{int:license-header}} ==
{{self|author={{User at project|Continentaleurope|Wikipedia|En}}|GFDL|cc-by-sa-3.0|migration=redundant}}

== {{Original upload log}} ==
{{original description|en.wikipedia|Ghajn+Tuffiegha+tower.jpeg}}
{| class="wikitable"
! {{int:filehist-datetime}} !! {{int:filehist-dimensions}} !! {{int:filehist-user}} !! {{int:filehist-comment}}
|-
| 2016-04-28 12:33 || 1936×2592× (1515156 bytes) || [[:en:User:Continentaleurope|Continentaleurope]] || ''<nowiki>Uploading a self-made file using [[Wikipedia:File_Upload_Wizard|File Upload Wizard]]</nowiki>''
|}

{{subst:unc}}