<!--This file was moved here using FileImporter from https://gl.wikipedia.org/wiki/Ficheiro:O_Grove,_Floreano_01-10a.JPG-->
== {{int:filedesc}} ==
{{Information
|Description= {{gl|Detalle da escultura de ''Floreano'', personaxe creado por Gogue. Escultor: Lucas Míguez (O Grove). Enriba da mesa hai un exemplar de [[:gl:Faro de Vigo|Faro de Vigo]].}}
|Source={{own}} 
|Author= [[:gl:User:Lameiro]]
|Permission={{PD-self}} 
|Date=2.07.2011
}}


[[Category:Sculptures in O Grove]]
[[Category:Lucas Míguez]]
[[Category:Gogue]]
[[Category:Faro de Vigo]]
