<!--This file was moved here using FileImporter from https://vi.wikipedia.org/wiki/T%E1%BA%ADp_tin:16.05.2006_001.JPG-->
== {{int:filedesc}} ==
{{Information
| description    = {{en|An adult ladybug}}
{{vi|Một con [[:vi:bọ rùa|bọ rùa]] ở Việt Nam, chúng là côn trùng có ích cho mùa màng vì ăn các loài sâu hại}}
| source         = {{own}}
| date           =
| author         = [[:vi:User:Bigbug~viwiki]]
| permission     =
| other_versions =
}}

== {{int:license-header}} ==
{{GFDL-no-disclaimers|migration=relicense}}

[[Category:Coccinellidae of Vietnam]]
