{{inaccurate paleoart|dinosaur=yes|reason=pronated hands are inaccurate}}

== {{int:filedesc}} ==
Photographed by [[:en:user:Ballista]]

== {{int:license-header}} ==
{{GFDL|migration=relicense}}

== {{original upload log}} ==
(From English Wikipedia)
<pre>
delete all	current	20:57, 29 June 2008	2,552×1,489 (1.48 MB)	FunkMonk  (Talk | contribs | block)	
delete	revert	15:34, 3 July 2006	2,560×1,920 (2.39 MB)	Ballista (Talk | contribs | block)	(== Summary == Photographer: User:Ballista == Licensing == {{GFDL-self|migration=relicense}} )
</pre>
=== {{original upload log}} ===
{| class=wikitable
! date/time || username || resolution || size || edit summary
|----
 |10:58, 29 June 2008 || [[User:FunkMonk]] || <a href="http://upload.wikimedia.org/wikipedia/commons/e/e9/Velociraptor_feeding_Animatronics_models_NHM.JPG"><img alt="Thumbnail for version as of 10:58, 29 June 2008" src="http://upload.wikimedia.org/wikipedia/commons/thumb/e/e9/Velociraptor_feeding_Animatronics_models_NHM.JPG/120px-Velociraptor_feeding_Animatronics_models_NHM.JPG" width="120" height="70" border="0" /></a></td><td>2,552×1,489 || 1.48 MB || <nowiki>{{Information |Description= |Source= |Date= |Author= |Permission= |other_versions= }}</nowiki>
|----
|08:23, 3 July 2006 || [[User:Dudo]] || <a href="http://upload.wikimedia.org/wikipedia/commons/archive/e/e9/20080629105827%21Velociraptor_feeding_Animatronics_models_NHM.JPG"><img alt="Thumbnail for version as of 08:23, 3 July 2006" src="http://upload.wikimedia.org/wikipedia/commons/thumb/archive/e/e9/20080629105827%21Velociraptor_feeding_Animatronics_models_NHM.JPG/120px-Velociraptor_feeding_Animatronics_models_NHM.JPG" width="120" height="90" border="0" /></a></td><td>800×600 || 70 KB || <nowiki>Credit to en:user:Ballista. <a href="/wiki/Category:Theropoda" title="Category:Theropoda">Category:Theropoda</a></nowiki>
|}

[[Category:Velociraptor models]]
[[Category:Animatronics]]
[[Category:Pages using Information template with parsing errors‎]]
[[Category:Media missing infobox template]]