== {{int:filedesc}} ==
{{Information
|description={{en|1=Hello world.}}
|Source=Hello world
|Date={{other date|summer|1933}}
|Author={{unknown|author}}
|Permission=Uploaded as fair use by the original volunteer.
|other_versions=
}}

== {{int:license-header}} ==
{{PD-Poland}}

== {{Original upload log}} ==
{{original description|en.wikipedia|Einsatzgruppe_shooting.jpg}}
{| class="wikitable"
! {{int:filehist-datetime}} !! {{int:filehist-dimensions}} !! {{int:filehist-user}} !! {{int:filehist-comment}}
|-
| 2009-08-02 06:51 || 320×203× (28085 bytes) || [[:en:User:Mtsmallwood|Mtsmallwood]] || ''<nowiki>{{Information |Description = A member of the [[Einsatzgruppen]] shooting naked women and children, either Poland or in Russia. Sometimes said to be of the [[Babi Yar]] massacre. |Source = http://www.berdichev.org/babi_yar.htm |Date </nowiki>''
|}

[[Category:Einsatzgruppen operations]]
[[Category:1942 in Poland]]
[[Category:The Holocaust in occupied Poland]]
[[Category:Ghettos in occupied Poland 1939-1944|Mizocz Ghetto]]
[[Category:Poland during World War II]]